<?xml version="1.0" standalone="no"?>
<!DOCTYPE svg PUBLIC "-//W3C//DTD SVG 20010904//EN"
 "http://www.w3.org/TR/2001/REC-SVG-20010904/DTD/svg10.dtd">
<svg version="1.0" xmlns="http://www.w3.org/2000/svg"
 width="100.000000pt" height="100.000000pt" viewBox="0 0 100.000000 100.000000"
 preserveAspectRatio="xMidYMid meet">

<g transform="translate(0.000000,100.000000) scale(0.100000,-0.100000)"
fill="#000000" stroke="none">
<path d="M353 948 c-35 -12 -37 -17 -24 -83 6 -35 4 -44 -21 -73 -36 -42 -35
-57 4 -137 l33 -66 -40 -72 c-39 -70 -40 -74 -40 -172 0 -58 8 -138 19 -192
l18 -92 47 -8 c59 -10 243 -10 302 0 l47 8 18 92 c11 54 19 134 19 192 0 98
-1 102 -40 172 l-40 72 33 66 c39 80 40 95 4 137 -25 29 -27 38 -21 73 13 67
12 71 -30 83 -53 16 -58 15 -65 -12 -8 -34 -54 -86 -76 -86 -22 0 -68 52 -76
86 -7 26 -20 28 -71 12z m57 -71 c13 -19 38 -44 56 -56 32 -22 33 -22 64 -5
17 10 42 36 57 56 24 36 61 54 50 24 -3 -7 -8 -34 -12 -59 -6 -40 -5 -46 15
-52 42 -13 45 -46 11 -113 -17 -34 -31 -71 -31 -83 0 -11 16 -50 36 -85 28
-49 38 -81 41 -128 6 -75 -22 -254 -43 -276 -22 -22 -286 -22 -308 0 -22 22
-49 192 -43 272 3 52 12 80 41 131 20 36 36 75 36 86 0 12 -14 49 -30 82 -34
67 -33 94 7 112 23 10 24 15 18 55 -4 25 -9 51 -12 58 -10 28 25 13 47 -19z"/>
</g>
</svg>
